{
    "sofaRequired": 1,
    "armchairRequire": 1,
    "rowLabels": ["GG", "FF", "EE", "DD", "CC", "BB", "AA"],
    "seatData": [
        [91, "BB-7", "9"],
        [92, "BB-8", "9"],
        [48, "EE-18", "10"]
    ],
    "tmap": [" LRLRLRLRLRLRLR   ", "LRLRLRLRLRLRLRLRA ", "LRLRLRLRLRLRLRLRAA", "AALRLRLRLRLRLRLRLR", "LRLRLRLRLRLRLRLRLR", " LRLRLRLRLRLRLRLR ", "   AAAALRLRLRA    "],
    "umap": [" OOOOOOXXOOOOOO   ", "OOOOXXXXXXOOOOOOX ", "OOOOOOXXXXXXOOXXXM", "XXOOOOXXXXXXOOOOOO", "OOOOOOXXXXXXOOOOOO", " OOOOOOMMOOOOOOOO ", "   XXXXXXXXXXX    "],
    "image": "https://upload.wikimedia.org/wikipedia/en/1/1c/T2_%E2%80%93_Trainspotting_poster.jpg",
    "date": "2017-02-01T16:00:00.000Z",
    "screen": "First Class",
    "rating": "18",
    "runtime": 117,
    "title": "T2: Trainspotting",
    "pricing": {
        "L": 11,
        "R": 11,
        "A": 15
    }
}